'263c8900-2328-4d92-b86c-48c7719de92c',
'ffb32cbc-38b4-4e35-b671-1e1c76b7f14a',
'b52ae462-ce66-488a-fa9d-08d7f19d306e',
'4adc8901-799f-4efb-533c-08d76d75b3cf',
'7a0d8076-efe0-466e-9d0b-f9f498272358',
'dc07e937-fe8e-4f5f-8aa5-6c7ce85dc923',
'8fbe77f8-3b7c-4411-8003-5c74c662b58e',
'518733a8-a8c3-450c-97fe-a54f79d03379',
'0783cddf-4a58-4d9a-9ad4-13e4a7b043a1',
'a5e19d5d-29bf-4942-a432-36e59a50d461',
'e9a8b1f0-a869-456d-a86b-4a363caa2731',
'7ceb5333-030e-4747-847b-08f451025c26',
'7611715e-7293-4563-879d-dd0fa8b1b278',
'b9e9daea-c505-4759-99fb-75a4677d598f',
'85369d51-e338-45fb-998f-d173509732e7',
'5b8998b6-699c-44ed-94a8-fc1a105867fc',